<!DOCTYPE html>
<html>
<body>

<h1>My First Web Page</h1>
<p>My First Paragraph</p>

<p id="demo"></p>

<script>
document.getElementById("demo").innerHTML = 5 + 6;
</script>

</body>
</html>



<!DOCTYPE html>
<html>
<body>

<h1>My First Web Page</h1>
<p>My first paragraph.</p>

<script>
document.write(5 + 6);
</script>

</body>
</html>



<!DOCTYPE html>
<html>
<body>

<h1>My First Web Page</h1>
<p>My first paragraph.</p>

<button type="button" onclick="document.write(5 + 6)">Try it</button>

</body>
</html>



<!DOCTYPE html>
<html>
<body>

<h1>My First Web Page</h1>
<p>My first paragraph.</p>

<script>
window.alert(5 + 6);
</script>

</body>
</html>


<!DOCTYPE html>
<html>
<body>

<script>
console.log(5 + 6);
</script>

</body>
</html>