var x, y, z;    // Statement 1
x = 5;          // Statement 2
y = 6;          // Statement 3
z = x + y;      // Statement 4



document.getElementById("demo").innerHTML = "Hello Dolly.";


var a, b, c;     // Declare 3 variables
a = 5;           // Assign the value 5 to a
b = 6;           // Assign the value 6 to b
c = a + b;       // Assign the sum of a and b to c


a = 5; b = 6; c = a + b;